43-65, None: None
44-7, Hand-to-Hand: Avengers
44-8, Hand-to-Hand: Darksteel Katars
44-9, Hand-to-Hand: Katars
44-10, Hand-to-Hand: Jamadhars
44-11, Hand-to-Hand: Exocets
44-12, Hand-to-Hand: Darksteel Claws
44-13, Hand-to-Hand: Claws
44-14, Hand-to-Hand: Mythril Claws
44-15, Hand-to-Hand: Cermet Claws
44-16, Hand-to-Hand: Cesti
44-17, Hand-to-Hand: Lizard Cesti
44-18, Hand-to-Hand: Poison Cesti
44-19, Hand-to-Hand: Dst. Knuckles
44-20, Hand-to-Hand: Bronze Knuckles
44-21, Hand-to-Hand: Brass Knuckles
44-22, Hand-to-Hand: Metal Knuckles
44-23, Hand-to-Hand: Mythril Knuckles
44-24, Hand-to-Hand: Koenigs Knuckles
44-25, Hand-to-Hand: Diamond Knuckles
44-26, Hand-to-Hand: Manoples
44-27, Hand-to-Hand: Gold Patas
44-28, Hand-to-Hand: Patas
44-29, Hand-to-Hand: Bone Patas
44-30, Hand-to-Hand: Cat Baghnakhs
44-31, Hand-to-Hand: Brass Baghnakhs
44-32, Hand-to-Hand: Baghnakhs
44-33, Hand-to-Hand: Rune Baghnakhs (Rune)
138-2, Hand-to-Hand: Spharai (Relic5)
149-43, Hand-to-Hand: Adargas
166-39, Hand-to-Hand: Sainti
169-118, Hand-to-Hand: Darksteel Sainti
171-68, Hand-to-Hand: Adaman Sainti
172-21, Hand-to-Hand: Black Adargas
173-70, Hand-to-Hand: Hades Sainti
205-19, Hand-to-Hand: Kenkonken
205-18, Hand-to-Hand: Glanzfaust
210-51, Hand-to-Hand: Shlng Baghnakhs
242-1, Hand-to-Hand: Verethragna
245-62, Hand-to-Hand: Afflictors
44-47, Dagger: Valiant Knife
44-48, Dagger: Darksteel Knife
44-49, Dagger: Bronze Knife
44-50, Dagger: Knife
44-51, Dagger: Mythril Knife
44-52, Dagger: Cermet Knife
44-53, Dagger: Misericorde
44-54, Dagger: Bronze Dagger
44-55, Dagger: Brass Dagger
44-56, Dagger: Dagger
44-57, Dagger: Mythril Dagger
44-58, Dagger: Dst. Baselard
44-59, Dagger: Baselard
44-60, Dagger: Mythril Baselard
44-61, Dagger: Darksteel Kukri
44-62, Dagger: Kukri
44-63, Dagger: Mythril Kukri
44-64, Dagger: Cermet Kukri
44-65, Dagger: Heart Snatcher
44-66, Dagger: Parrying Knife
44-67, Dagger: Cmb.Cst. Dagger
44-68, Dagger: Kris
44-69, Dagger: Triple Dagger
44-70, Dagger: Bone Knife
99-19, Dagger: Kard
227-9, Dagger: Unknown
137-116, Dagger: Mandau (Relic5)
138-0, Dagger: Unknown
147-125, Dagger: Harpe
163-117, Dagger: Jambiya
172-20, Dagger: Piercing Dagger
173-29, Dagger: Matron's Knife
200-11, Dagger: Darksteel jambiya
205-10, Dagger: Vajra
205-15, Dagger: Carnwenhan
205-16, Dagger: Terpsichore
210-40, Dagger: Azoth
219-24, Dagger: Ermine's Tail
245-60, Dagger: Twashtar
246-0, Dagger: Auric Dagger
262-6, Dagger: Twilight Knife
264-103, Dagger: Mantodea Harpe
266-20, Dagger: New Knife
44-71, Sword: Colichemarde
44-72, Sword: Small Sword
44-73, Sword: Bilbo
44-74, Sword: Jr.Msk. Tuck
44-75, Sword: Joyeuse
44-76, Sword: Schlaeger
44-77, Sword: Duel Rapier
44-78, Sword: Degen
44-79, Sword: Mythril Degen
44-80, Sword: Epee
44-81, Sword: Fleuret
44-82, Sword: Schwert
44-83, Sword: Ryl.Grd. Fleuret
45-11, Sword: Spatha
45-12, Sword: Gold Sword
45-13, Sword: Longsword
45-14, Sword: Knight's Sword
45-15, Sword: Saber
45-16, Sword: Rune Blade (Rune)
45-17, Sword: Sapara
45-18, Sword: Scimitar
45-19, Sword: Tulwar
45-20, Sword: Hanger
45-21, Sword: Ridill
45-22, Sword: Darksteel Falchion
45-23, Sword: Platinum Cutlass
45-24, Sword: Falchion
45-25, Sword: Cutlass
45-26, Sword: Xiphos
45-27, Sword: Brass Xiphos
45-28, Sword: Gladius
45-29, Sword: Darksteel Sword
45-30, Sword: Bronze Sword
45-31, Sword: Jagdplaute
45-32, Sword: Iron Sword
45-33, Sword: Mythril Sword
45-34, Sword: Dainslaif
45-35, Sword: Cermet Sword
45-36, Sword: Anelace
45-37, Sword: Katzbalger
45-38, Sword: Broadsword
45-39, Sword: Coral Sword
45-40, Sword: Hrotti
45-41, Sword: Bastard Sword
45-42, Sword: Hunting Sword
45-43, Sword: Espadon
45-44, Sword: Nadrs
45-45, Sword: Ancient Sword
45-46, Sword: Kaiser Sword
45-47, Sword: Dissector
45-48, Sword: Unknown
45-49, Sword: Gluttony Sword
45-50, Sword: Wing Sword
121-13, Sword: Excalibur (Relic5)
150-63, Sword: Shotel
162-101, Sword: Kilij
164-113, Sword: Macuahuitl
169-117, Sword: Darksteel Kilij
170-111, Sword: Adaman Kilij
171-67, Sword: Sanguine Sword
175-10, Sword: Hauteclaire 
183-81, Sword: Unknown Kilij
184-88, Sword: Hofud
205-6, Sword: ???
205-7, Sword: Tizana
205-8, Sword: Murgleis
205-14, Sword: Burtgang
210-41, Sword: Fragarach
211-64, Sword: Organics
227-10, Sword: Unknown
241-126, Sword: Almace
246-1, Sword: Tyrfing
263-101, Sword: Talekeeper
266-100, Sword: New Sword
43-81, Club: Unknown
43-118, Club: Oak Cudgel
43-119, Club: Bone Cudgel
43-120, Club: Buzdygan
43-121, Club: Darksteel Mace
43-122, Club: Bronze Mace
43-123, Club: Platinum Mace
43-124, Club: Mace
43-125, Club: Mythril Mace
43-126, Club: Ash Club
43-127, Club: Chestnut Club
44-0, Club: Shellbuster
44-1, Club: Great Club
44-2, Club: Darksteel Maul
44-3, Club: Bronze Hammer
44-4, Club: Brass Hammer
44-5, Club: Warhammer
44-6, Club: Maul
44-108, Club: Scepter
44-109, Club: Darksteel Rod
44-110, Club: Bronze Rod
44-111, Club: Brass Rod
44-112, Club: Rod
44-113, Club: Mythril Rod
44-114, Club: Bone Rod
44-115, Club: Ebony Wand
44-116, Club: Yew Wand
44-117, Club: Maple Wand
44-118, Club: Mythic Wand
44-119, Club: Mistilteinn
44-120, Club: Rose Wand
44-121, Club: Chestnut Wand
44-122, Club: Willow Wand
44-123, Club: Caduceus
44-124, Club: Unknown
44-125, Club: Unknown 2
44-126, Club: Chocobo Wand
44-127, Club: Unknown
45-0, Club: Unknown 2
45-1, Club: Unknown 3
45-2, Club: Star Rod
45-3, Club: Asklepios
45-4, Club: Curse Wand
45-5, Club: Skirnir's Wand
45-6, Club: Earth Wand
45-7, Club: Unknown10
45-8, Club: Unknown11
45-9, Club: Unknown12
45-10, Club: Fey Wand
45-69, Club: Mjollnir (Relic5)
137-118, Club: Rune Rod (Rune)
137-125, Club: Unknown15
149-36, Club: Morgenstern
150-64, Club: Unknown
159-95, Club: Charm Wand
160-116, Club: Moogle Rod
163-118, Club: Jadagna
170-30, Club: Nmd. Moogle Rod
183-80, Club: Unknown Jadagna
205-3, Club: Vagrush
210-47, Club: Antares
211-65, Club: Flanged Mace
218-27, Club: Dream Bell
220-24, Club: Club Hammer
220-124, Club: Lady Bell
242-42, Club: Gambanteinn
246-7, Club: Owleyes
264-102, Club: Tefnut Wand
266-52, Club: New Club
43-94, Axe: Bronze Axe
43-95, Axe: Brass Axe
43-96, Axe: Battleaxe
43-97, Axe: Mythril Axe
43-98, Axe: Bone Axe
43-99, Axe: Tabarzin
43-100, Axe: Darksteel Tabar
43-101, Axe: Tabar
43-102, Axe: Darksteel Axe
43-103, Axe: Rune Axe
43-104, Axe: Nadziak
43-105, Axe: Darksteel Pick
43-106, Axe: War Pick
43-107, Axe: Mythril Pick
43-108, Axe: Bone Pick
43-109, Axe: Orcish Axe
138-1, Axe: Guttler (Relic5)
144-88, Axe: Tomahawk
171-64, Axe: Sirius Axe
205-1, Axe: Aymur
210-43, Axe: Labrys
245-61, Axe: Farsha
246-2, Axe: Glyph Axe
264-101, Axe: Tonatiuh Axe
99-12, Katana: Fudo
99-13, Katana: Wakizashi
99-14, Katana: Kodachi
99-15, Katana: Sakurafubuki
99-16, Katana: Kabutowari
99-17, Katana: Ganko
99-18, Katana: Kunai
137-126, Katana: Kikoku
152-10, Katana: Sai
158-40, Katana: Hirenjaku
171-66, Katana: Ryumon
172-19, Katana: Hayabusa
205-9, Katana: Nagi
210-49, Katana: Shusui
211-66, Katana: Oninohocho
247-33, Katana: Kannagi
246-5, Katana: Hochomasamune
43-82, G. Sword: Rsv.Cpt.Grt. sword
43-83, G. Sword: Dst. Claymore
43-84, G. Sword: Claymore
43-85, G. Sword: Mythril Claymore
43-86, G. Sword: Glorious Sword
43-87, G. Sword: Arondight
43-88, G. Sword: Zweihander
43-89, G. Sword: Two/Hand. Sword
43-90, G. Sword: Greatsword
43-91, G. Sword: Ryl.Grd. Sword
43-92, G. Sword: Flamberge
43-93, G. Sword: Faussar
121-11, G. Sword: Bloody Sword
121-12, G. Sword: Ragnarok (Relic5)
121-14, G. Sword: Balmung
144-87, G. Sword: Falx
149-38, G. Sword: Unknown
149-39, G. Sword: Unknown 2
163-115, G. Sword: Algol
170-113, G. Sword: Gold Algol
200-9, G. Sword: Bahadur
210-42, G. Sword: Naglering
228-122, G. Sword: Unknown
238-125, G. Sword: Nightfall
241-127, G. Sword: Caladbolg
249-41, G. Sword: Ferus Algol
264-99, G. Sword: Jingang Greatsword
45-51, Staff: Elm Staff
45-52, Staff: Holly Staff
45-53, Staff: Oak Staff
45-54, Staff: Ash Staff
45-55, Staff: Mahogany Staff
45-56, Staff: Lgn. Staff
45-57, Staff: Wis.Wiz. Staff
45-58, Staff: Spiked Club
45-59, Staff: Rockmasher
45-60, Staff: Ebony Pole
45-61, Staff: Elm Pole
45-62, Staff: Holly Pole
45-63, Staff: Oak Pole
45-64, Staff: Ash Pole
45-65, Staff: Mythic Pole
45-66, Staff: Mahogany Pole
45-67, Staff: Rune Staff (Rune)
45-68, Staff: Monster Signa
126-117, Staff: Dark Staff
126-118, Staff: Water Staff
126-119, Staff: Wind Staff
126-120, Staff: Ice Staff
126-121, Staff: Thunder Staff
126-122, Staff: Fire Staff
126-123, Staff: Light Staff
126-124, Staff: Earth Staff
126-125, Staff: Trick Staff
137-123, Staff: Iron/splitter
137-124, Staff: Claustrum (Relic5)
148-52, Staff: Kgd. Signet Staff
148-53, Staff: Fed. Signet Staff
148-54, Staff: Rep. Signet Staff
149-37, Staff: Primate Staff
205-4, Staff: Laevakeinn
205-5, Staff: Nirvana
205-17, Staff: Tupsimati
210-48, Staff: Alkalurops
211-60, Staff: Mekki Shakki
211-61, Staff: Dorje
220-25, Staff: Caver's Shovel
227-8, Staff: Unknown
227-12, Staff: Unknown 2
242-43, Staff: Hvergelmir
264-100, Staff: Fulcrum Pole
43-110, G. Axe: Snr.Msk. Axe
43-111, G. Axe: Heavy Axe
43-112, G. Axe: Butterfly Axe
43-113, G. Axe: Greataxe
43-114, G. Axe: Bhuj
43-115, G. Axe: Kheten
43-116, G. Axe: Gigant Axe
43-117, G. Axe: Zerstoerer
137-117, G. Axe: Rune Chopper (Rune)
137-121, G. Axe: Bravura (Relic5)
144-83, G. Axe: Voulge
149-40, G. Axe: Unknown
149-41, G. Axe: Leucous Voulge
163-114, G. Axe: Amood
170-112, G. Axe: Dark Amood
200-8, G. Axe: Wootz amood
205-2, G. Axe: Conqueror
210-44, G. Axe: Foolkiller
212-20, G. Axe: Balestorius
219-25, G. Axe: Eventreuse
247-14, G. Axe: Ukonvasara
246-3, G. Axe: Vermeil Bhuj
44-34, G. Katana: Nukemaru
44-35, G. Katana: Tachi
44-36, G. Katana: Mikazuki
44-37, G. Katana: Hosodachi
44-38, G. Katana: Onikiri
44-39, G. Katana: Unknown02
44-40, G. Katana: Unknown03
44-41, G. Katana: Zanbato
44-42, G. Katana: Unknown04
44-43, G. Katana: Ashura
44-44, G. Katana: Mumeito
44-45, G. Katana: Murasame
44-46, G. Katana: Honebami
126-116, G. Katana: Kazaridachi
137-122, G. Katana: Amanomurakumo (Relic5)
144-86, G. Katana: Unknown
154-72, G. Katana: Wooden Katana
172-17, G. Katana: Shirogatana
183-119, G. Katana: Shinai
205-12, G. Katana: Kogarasumaru
210-50, G. Katana: Pachipachio
211-62, G. Katana: Nanatsusaya
242-41, G. Katana: Masamune
246-6, G. Katana: Scathacha
44-84, Scythe: Darksteel Scythe
44-85, Scythe: Scythe
44-86, Scythe: Mythril Scythe
44-87, Scythe: Bronze Zaghnal
44-88, Scythe: Brass Zaghnal
44-89, Scythe: Zaghnal
44-90, Scythe: Mythril Zaghnal
44-91, Scythe: Demonslicer
121-15, Scythe: Bone Scythe
137-120, Scythe: Apocalypse (Relic5)
137-127, Scythe: Unknown02
144-85, Scythe: Mandibular Sickle
149-42, Scythe: Ivory Sickle
158-41, Scythe: Orichalcum Scythe
172-18, Scythe: Naigama
205-13, Scythe: Liberator
210-45, Scythe: Enforcer
227-7, Scythe: Unknown
242-0, Scythe: Redemption
246-4, Scythe: Plaga Scythe
261-106, Scythe: Twilight Scythe
44-92, Polearm: Halberd
44-93, Polearm: Ox Tongue
44-94, Polearm: Partisan
44-95, Polearm: Bronze Spear
44-96, Polearm: Brass Spear
44-97, Polearm: Spear
44-98, Polearm: Harpoon
44-99, Polearm: Darksteel Lance
44-100, Polearm: Lance
44-101, Polearm: Mythril Lance
44-102, Polearm: Barchha
44-103, Polearm: Cermet Lance
44-104, Polearm: Kamayari
44-105, Polearm: Wyvern Spear
44-106, Polearm: Trident
44-107, Polearm: Gungnir (Relic5)
137-119, Polearm: Rune Halberd (Rune)
144-84, Polearm: Couse
157-98, Polearm: Pitchfork
158-39, Polearm: Orichalcum Lance
163-116, Polearm: Mezraq
171-65, Polearm: Dark Mezraq
172-16, Polearm: Engetsuto
184-89, Polearm: Valkyrie's Fork
200-10, Polearm: Thalassocrat
205-11, Polearm: Ryunohige
210-46, Polearm: Cletine
211-63, Polearm: Tomoe
219-26, Polearm: Zaide
219-27, Polearm: Dabo
227-11, Polearm: Unknown
247-32, Polearm: Rhongomiant
