53-22, None: None
53-92, Hand/to/Hand: Avengers
53-93, Hand/to/Hand: Darksteel Katars
53-94, Hand/to/Hand: Katars
53-95, Hand/to/Hand: Jamadhars
53-96, Hand/to/Hand: Exocets
53-97, Hand/to/Hand: Darksteel Claws
53-98, Hand/to/Hand: Claws
53-99, Hand/to/Hand: Mythril Claws
53-100, Hand/to/Hand: Cermet Claws
53-101, Hand/to/Hand: Cesti
53-102, Hand/to/Hand: Lizard Cesti
53-103, Hand/to/Hand: Poison Cesti
53-104, Hand/to/Hand: Dst. Knuckles
53-105, Hand/to/Hand: Bronze Knuckles
53-106, Hand/to/Hand: Brass Knuckles
53-107, Hand/to/Hand: Metal Knuckles
53-108, Hand/to/Hand: Mythril Knuckles
53-109, Hand/to/Hand: Koenigs Knuckles
53-110, Hand/to/Hand: Diamond Knuckles
53-111, Hand/to/Hand: Manoples
53-112, Hand/to/Hand: Gold Patas
53-113, Hand/to/Hand: Patas
53-114, Hand/to/Hand: Bone Patas
53-115, Hand/to/Hand: Cat Baghnakhs
53-116, Hand/to/Hand: Brass Baghnakhs
53-117, Hand/to/Hand: Baghnakhs
53-118, Hand/to/Hand: Rune Baghnakhs (Rune)
138-105, Hand/to/Hand: Spharai (Relic5)
149-67, Hand/to/Hand: Adargas
166-71, Hand/to/Hand: Sainti
169-124, Hand/to/Hand: Darksteel Sainti
171-80, Hand/to/Hand: Adaman Sainti
172-33, Hand/to/Hand: Black Adargas
173-72, Hand/to/Hand: Hades Sainti
205-61, Hand/to/Hand: Kenkonken
205-60, Hand/to/Hand: Glanzfaust
210-79, Hand/to/Hand: Shlng Baghnakhs
242-11, Hand/to/Hand: Verethragna
245-99, Hand/to/Hand: Afflictors
54-4, Dagger: Valiant Knife
54-5, Dagger: Darksteel Knife
54-6, Dagger: Bronze Knife
54-7, Dagger: Knife
54-8, Dagger: Mythril Knife
54-9, Dagger: Cermet Knife
54-10, Dagger: Misericorde
54-11, Dagger: Bronze Dagger
54-12, Dagger: Brass Dagger
54-13, Dagger: Dagger
54-14, Dagger: Mythril Dagger
54-15, Dagger: Dst. Baselard
54-16, Dagger: Baselard
54-17, Dagger: Mythril Baselard
54-18, Dagger: Darksteel Kukri
54-19, Dagger: Kukri
54-20, Dagger: Mythril Kukri
54-21, Dagger: Cermet Kukri
54-22, Dagger: Heart Snatcher
54-23, Dagger: Parrying Knife
54-24, Dagger: Cmb.Cst. Dagger
54-25, Dagger: Kris
54-26, Dagger: Triple Dagger
54-27, Dagger: Bone Knife
99-85, Dagger: Kard
138-91, Dagger: Mandau (Relic5)
138-103, Dagger: Unknown
147-127, Dagger: Harpe
164-1, Dagger: Jambiya
172-32, Dagger: Piercing Dagger
173-31, Dagger: Matron's Knife
200-28, Dagger: Jambiya
200-27, Dagger: Darksteel jambiya
205-52, Dagger: Vajra
205-57, Dagger: Carnwenhan
205-58, Dagger: Terpsichore
210-68, Dagger: Azoth
219-32, Dagger: Ermine's Tail
227-21, Dagger: Unknown
245-68, Dagger: Twashtar
246-16, Dagger: Auric Dagger
262-8, Dagger: Twilight Knife
264-113, Dagger: Mantodea Harpe
266-34, Dagger: New Knife
54-28, Sword: Colichemarde
54-29, Sword: Small Sword
54-30, Sword: Bilbo
54-31, Sword: Jr.Msk. Tuck
54-32, Sword: Joyeuse
54-33, Sword: Schlaeger
54-34, Sword: Duel Rapier
54-35, Sword: Degen
54-36, Sword: Mythril Degen
54-37, Sword: Epee
54-38, Sword: Fleuret
54-39, Sword: Schwert
54-40, Sword: Ryl.Grd. Fleuret
54-96, Sword: Spatha
54-97, Sword: Gold Sword
54-98, Sword: Longsword
54-99, Sword: Knight's Sword
54-100, Sword: Saber
54-101, Sword: Rune Blade (Rune)
54-102, Sword: Sapara
54-103, Sword: Scimitar
54-104, Sword: Tulwar
54-105, Sword: Hanger
54-106, Sword: Ridill
54-107, Sword: Darksteel Falchion
54-108, Sword: Platinum Cutlass
54-109, Sword: Falchion
54-110, Sword: Cutlass
54-111, Sword: Xiphos
54-112, Sword: Brass Xiphos
54-113, Sword: Gladius
54-114, Sword: Darksteel Sword
54-115, Sword: Bronze Sword
54-116, Sword: Jagdplaute
54-117, Sword: Iron Sword
54-118, Sword: Mythril Sword
54-119, Sword: Dainslaif
54-120, Sword: Cermet Sword
54-121, Sword: Anelace
54-122, Sword: Katzbalger
54-123, Sword: Broadsword
54-124, Sword: Coral Sword
54-125, Sword: Hrotti
54-126, Sword: Bastard Sword
54-127, Sword: Hunting Sword
55-0, Sword: Espadon
55-1, Sword: Nadrs
55-2, Sword: Ancient Sword
55-3, Sword: Kaiser Sword
55-4, Sword: Dissector
55-5, Sword: Unknown09
55-6, Sword: Gluttony Sword
55-7, Sword: Wing Sword
121-104, Sword: Excalibur (Relic5)
150-87, Sword: Shotel
163-79, Sword: Kilij
164-115, Sword: Macuahuitl
169-123, Sword: Darksteel Kilij
170-119, Sword: Adaman Kilij
171-79, Sword: Sanguine Sword
175-14, Sword: Hauteclaire 
183-89, Sword:  Unknown Kilij
184-92, Sword: Hofud
205-48, Sword: ???
205-49, Sword: Tizana
205-50, Sword: Murgleis
205-56, Sword: Burtgang
210-69, Sword: Fragarach
211-78, Sword: Organics
227-22, Sword: Unknown
242-8, Sword: Almace
246-17, Sword: Tyrfing
263-103, Sword: Talekeeper
266-102, Sword: New Sword
53-38, Club: Unknown
53-75, Club: Oak Cudgel
53-76, Club: Bone Cudgel
53-77, Club: Buzdygan
53-78, Club: Darksteel Mace
53-79, Club: Bronze Mace
53-80, Club: Platinum Mace
53-81, Club: Mace
53-82, Club: Mythril Mace
53-83, Club: Ash Club
53-84, Club: Chestnut Club
53-85, Club: Shellbuster
53-86, Club: Great Club
53-87, Club: Darksteel Maul
53-88, Club: Bronze Hammer
53-89, Club: Brass Hammer
53-90, Club: Warhammer
53-91, Club: Maul
54-65, Club: Scepter
54-66, Club: Darksteel Rod
54-67, Club: Bronze Rod
54-68, Club: Brass Rod
54-69, Club: Rod
54-70, Club: Mythril Rod
54-71, Club: Bone Rod
54-72, Club: Ebony Wand
54-73, Club: Yew Wand
54-74, Club: Maple Wand
54-75, Club: Mythic Wand
54-76, Club: Mistilteinn
54-77, Club: Rose Wand
54-78, Club: Chestnut Wand
54-79, Club: Willow Wand
54-80, Club: Caduceus
54-81, Club: Unknown
54-82, Club: Unknown 2
54-83, Club: Chocobo Wand
54-84, Club: Unknown
54-85, Club: Unknown 2
54-86, Club: Unknown 3
54-87, Club: Star Rod
54-88, Club: Asklepios
54-89, Club: Curse Wand
54-90, Club: Skirnir's Wand
54-91, Club: Earth Wand
54-92, Club: Unknown10
54-93, Club: Unknown11
54-94, Club: Unknown12
54-95, Club: Fey Wand
55-26, Club: Mjollnir (Relic5)
138-93, Club: Rune Rod (Rune)
138-100, Club: Unknown15
149-60, Club: Morgenstern
150-88, Club: Unknown
159-97, Club: Charm Wand
160-118, Club: Moogle Rod
164-2, Club: Jadagna
170-32, Club: Nmd. Moogle Rod
183-88, Club: Unknown Jadagna
205-45, Club: Vagrush
210-75, Club: Antares
211-79, Club: Flanged Mace
220-28, Club: Club Hammer
220-126, Club: Lady Bell
242-58, Club: Gambanteinn
246-23, Club: Owleyes
264-112, Club: Tefnut Wand
266-54, Club: New Club
53-51, Axe: Bronze Axe
53-52, Axe: Brass Axe
53-53, Axe: Battleaxe
53-54, Axe: Mythril Axe
53-55, Axe: Bone Axe
53-56, Axe: Tabarzin
53-57, Axe: Darksteel Tabar
53-58, Axe: Tabar
53-59, Axe: Darksteel Axe
53-60, Axe: Rune Axe
53-61, Axe: Nadziak
53-62, Axe: Darksteel Pick
53-63, Axe: War Pick
53-64, Axe: Mythril Pick
53-65, Axe: Bone Pick
53-66, Axe: Orcish Axe
138-104, Axe: Guttler (Relic5)
145-32, Axe: Tomahawk
171-76, Axe: Sirius Axe
205-43, Axe: Aymur
210-71, Axe: Labrys
245-69, Axe: Farsha
246-18, Axe: Glyph Axe
264-111, Axe: Tonatiuh Axe
99-78, Katana: Fudo
99-79, Katana: Wakizashi
99-80, Katana: Kodachi
99-81, Katana: Sakurafubuki
99-82, Katana: Kabutowari
99-83, Katana: Ganko
99-84, Katana: Kunai
138-101, Katana: Kikoku
152-12, Katana: Sai
158-56, Katana: Hirenjaku
171-78, Katana: Ryumon
172-31, Katana: Hayabusa
205-51, Katana: Nagi
210-77, Katana: Shusui
211-80, Katana: Oninohocho
247-37, Katana: Kannagi
246-21, Katana: Hochomasamune
53-39, G. Sword: Rsv.Cpt.Grt. sword
53-40, G. Sword: Dst. Claymore
53-41, G. Sword: Claymore
53-42, G. Sword: Mythril Claymore
53-43, G. Sword: Glorious Sword
53-44, G. Sword: Arondight
53-45, G. Sword: Zweihander
53-46, G. Sword: Two/Hand. Sword
53-47, G. Sword: Greatsword
53-48, G. Sword: Ryl.Grd. Sword
53-49, G. Sword: Flamberge
53-50, G. Sword: Faussar
121-102, G. Sword: Bloody Sword
121-103, G. Sword: Ragnarok (Relic5)
121-105, G. Sword: Balmung
145-31, G. Sword: Falx
149-62, G. Sword: Unknown
149-63, G. Sword: Unknown 2
163-127, G. Sword: Algol
170-121, G. Sword: Gold Algol
200-25, G. Sword: G. Bahadur
210-70, G. Sword: G. Naglering
239-7, G. Sword: Nightfall
242-9, G. Sword: Caladbolg
249-43, G. Sword: Ferus Algol
264-109, G. Sword: Jingang Greatsword
55-8, Staff: Elm Staff
55-9, Staff: Holly Staff
55-10, Staff: Oak Staff
55-11, Staff: Ash Staff
55-12, Staff: Mahogany Staff
55-13, Staff: Lgn. Staff
55-14, Staff: Wis.Wiz. Staff
55-15, Staff: Spiked Club
55-16, Staff: Rockmasher
55-17, Staff: Ebony Pole
55-18, Staff: Elm Pole
55-19, Staff: Holly Pole
55-20, Staff: Oak Pole
55-21, Staff: Ash Pole
55-22, Staff: Mythic Pole
55-23, Staff: Mahogany Pole
55-24, Staff: Rune Staff (Rune)
55-25, Staff: Monster Signa
127-77, Staff: Dark Staff
127-78, Staff: Water Staff
127-79, Staff: Wind Staff
127-80, Staff: Ice Staff
127-81, Staff: Thunder Staff
127-82, Staff: Fire Staff
127-83, Staff: Light Staff
127-84, Staff: Earth Staff
127-85, Staff: Treat Staff
138-98, Staff: Iron/splitter
138-99, Staff: Claustrum (Relic5)
148-58, Staff: Kgd. Signet Staff
148-59, Staff: Fed. Signet Staff
148-60, Staff: Rep. Signet Staff
149-61, Staff: Primate Staff
205-46, Staff: Laevakeinn
205-47, Staff: Nirvana
205-59, Staff: Tupsimati
210-76, Staff: Alkalurops
211-74, Staff: Mekki Shakki
211-75, Staff: Dorje
220-29, Staff: Caver's Shovel
227-20, Staff: Unknown
227-24, Staff: Unknown 2
242-49, Staff: Hvergelmir
264-110, Staff: Fulcrum Pole
53-67, G. Axe: Snr.Msk. Axe
53-68, G. Axe: Heavy Axe
53-69, G. Axe: Butterfly Axe
53-70, G. Axe: Greataxe
53-71, G. Axe: Bhuj
53-72, G. Axe: Kheten
53-73, G. Axe: Gigant Axe
53-74, G. Axe: Zerstoerer
138-92, G. Axe: Rune Chopper (Rune)
138-96, G. Axe: Bravura (Relic5)
145-27, G. Axe: Voulge
149-64, G. Axe: Unknown
149-65, G. Axe: Leucous Voulge
163-126, G. Axe: Amood
170-120, G. Axe: Dark Amood
200-24, G. Axe: Wootz amood
205-44, G. Axe: Conqueror
210-72, G. Axe: Foolkiller
212-22, G. Axe: Balestorius
219-33, G. Axe: Eventreuse
247-18, G. Axe: Ukonvasara
246-19, G. Axe: Vermeil Bhuj
53-119, G. Katana: Nukemaru
53-120, G. Katana: Tachi
53-121, G. Katana: Mikazuki
53-122, G. Katana: Hosodachi
53-123, G. Katana: Onikiri
53-124, G. Katana: Unknown02
53-125, G. Katana: Unknown03
53-126, G. Katana: Zanbato
53-127, G. Katana: Unknown04
54-0, G. Katana: Ashura
54-1, G. Katana: Mumeito
54-2, G. Katana: Murasame
54-3, G. Katana: Honebami
127-76, G. Katana: Kazaridachi
138-97, G. Katana: Amanomurakumo (Relic5)
145-30, G. Katana: Unknown
154-86, G. Katana: Wooden Katana
172-29, G. Katana: Shirogatana
183-121, G. Katana: Shinai
205-54, G. Katana: Kogarasumaru
210-78, G. Katana: Pachipachio
211-76, G. Katana: Nanatsusaya
242-47, G. Katana: Masamune
246-22, G. Katana: Scathacha
54-41, Scythe: Darksteel Scythe
54-42, Scythe: Scythe
54-43, Scythe: Mythril Scythe
54-44, Scythe: Bronze Zaghnal
54-45, Scythe: Brass Zaghnal
54-46, Scythe: Zaghnal
54-47, Scythe: Mythril Zaghnal
54-48, Scythe: Demonslicer
121-106, Scythe: Bone Scythe
138-95, Scythe: Apocalypse (Relic5)
138-102, Scythe: Unknown02
145-29, Scythe: Mandibular Sickle
149-66, Scythe: Ivory Sickle
158-57, Scythe: Orichalcum Scythe
172-30, Scythe: Naigama
205-55, Scythe: Liberator
210-73, Scythe: Enforcer
227-19, Scythe: Unknown
242-10, Scythe: Redemption
246-20, Scythe: Plaga Scythe
261-108, Scythe: Twilight Scythe
54-49, Polearm: Halberd
54-50, Polearm: Ox Tongue
54-51, Polearm: Partisan
54-52, Polearm: Bronze Spear
54-53, Polearm: Brass Spear
54-54, Polearm: Spear
54-55, Polearm: Harpoon
54-56, Polearm: Darksteel Lance
54-57, Polearm: Lance
54-58, Polearm: Mythril Lance
54-59, Polearm: Barchha
54-60, Polearm: Cermet Lance
54-61, Polearm: Kamayari
54-62, Polearm: Wyvern Spear
54-63, Polearm: Trident
54-64, Polearm: Gungnir (Relic5)
138-94, Polearm: Rune Halberd (Rune)
145-28, Polearm: Couse
157-115, Polearm: Pitchfork
158-55, Polearm: Orichalcum Lance
164-0, Polearm: Mezraq
171-77, Polearm: Dark Mezraq
172-28, Polearm: Engetsuto
184-93, Polearm: Valkyrie's Fork
200-26, Polearm: Thalassocrat
205-53, Polearm: Ryunohige
210-74, Polearm: Cletine
211-77, Polearm: Tomoe
219-34, Polearm: Zaide
219-35, Polearm: Dabo
227-23, Polearm: Unknown
247-36, Polearm: Rhongomiant
