169/12-13,Body (Yellow)
169/21-22,Body (Black)
169/30-31,Body (Blue)
170/41-42,Body (Red)
170/49-50,Body (Green)
4/5/8-9,Body (Yellow)
4/5/18-19,Body (Black)
4/5/27-28,Body (Blue)
4/5/36-37,Body (Red)
4/5/45-46,Body (Green)