@Basic
97/102,Summon
97/110,Release
2/23/125,Prime Summon
2/24/3,Prime Release
@Blood Pacts
118/63,Claw
118/64,Aero II
118/65,Whispering Wind
118/66,Hastega
118/67,Aerial Armor
118/68,Aero IV
118/69,Predator Claws
118/70,Wind Blade
118/71;119/69,Aerial Blast
259/71,Fleet Wind